C:\Users\Lenovo\Desktop\60160271\MyCompanent\src\main\java\com\mycompany\mycompanent\TestDialog.java
C:\Users\Lenovo\Desktop\60160271\MyCompanent\src\main\java\com\mycompany\mycompanent\Product.java
C:\Users\Lenovo\Desktop\60160271\MyCompanent\src\main\java\com\mycompany\mycompanent\ProductPanel.java
